{
    "KPackageStructure": "Plasma/Applet",
    "KPlugin": {
        "Authors": [
            {
                "Email": "sitter@kde.org",
                "Name": "Harald Sitter",
                "Name[ar]": "هارالد سِتِر",
                "Name[bg]": "Harald Sitter",
                "Name[ca@valencia]": "Harald Sitter",
                "Name[ca]": "Harald Sitter",
                "Name[cs]": "Harald Sitter",
                "Name[de]": "Harald Sitter",
                "Name[en_GB]": "Harald Sitter",
                "Name[es]": "Harald Sitter",
                "Name[eu]": "Harald Sitter",
                "Name[fi]": "Harald Sitter",
                "Name[fr]": "Harald Sitter",
                "Name[ia]": "Harald Sitter",
                "Name[it]": "Harald Sitter",
                "Name[ka]": "ჰერალდ სიტერი",
                "Name[ko]": "Harald Sitter",
                "Name[lt]": "Harald Sitter",
                "Name[nl]": "Harald Sitter",
                "Name[nn]": "Harald Sitter",
                "Name[pl]": "Harald Sitter",
                "Name[pt]": "Harald Sitter",
                "Name[pt_BR]": "Harald Sitter",
                "Name[ru]": "Harald Sitter",
                "Name[sk]": "Harald Sitter",
                "Name[sl]": "Harald Sitter",
                "Name[sv]": "Harald Sitter",
                "Name[ta]": "ஹரால்டு சிட்டர்",
                "Name[tr]": "Harald Sitter",
                "Name[uk]": "Harald Sitter",
                "Name[x-test]": "xxHarald Sitterxx",
                "Name[zh_CN]": "Harald Sitter",
                "Name[zh_TW]": "Harald Sitter"
            }
        ],
        "Category": "Multimedia",
        "Description": "Adjust the volume of devices and applications",
        "EnabledByDefault": true,
        "FormFactors": [
            "desktop"
        ],
        "Icon": "audio-volume-high",
        "Id": "org.kde.plasma.volume",
        "License": "GPL",
        "Name": "Audio Volume",
        "Version": "1.0.0",
        "Website": ""
    },
    "X-Plasma-API": "declarativeappletscript",
    "X-Plasma-MainScript": "ui/main.qml",
    "X-Plasma-NotificationArea": true,
    "X-Plasma-NotificationAreaCategory": "Hardware"
}
